…
The components of this archive (archive format is completely general,
so it is not possible to write a 'smart' import function) can be
accessed...


```r
rowData <- tibble(
    gene_name = as(arr$gene_name, "matrix")
)
rowData
## # A tibble: 16,573 x 1
##    gene_name
##    <chr>    
##  1 Nop58    
##  2 Arl6ip4  
##  3 Lix1     
##  4 Chrm1    
##  5 Nap1l1   
##  6 Kat6a    
##  7 Fam134c  
##  8 Lrpprc   
##  9 Srgap3   
## 10 Slc1a3   
## # … with 16,563 more rows

colData <- tibble(
    region_id = as(arr$region_id, "matrix"),
    x_region = as(arr$x_region, "matrix"),
    y_region = as(arr$y_region, "matrix")
)
colData
## # A tibble: 267 x 3
##    region_id x_region y_region
##        <dbl>    <dbl>    <dbl>
##  1         0    4637.    2333.
##  2         1    4894.    2334.
##  3         2    5463.    2333.
##  4         3    5187.    2330.
##  5         4    5769.    2896.
##  6         5    5774.    2604.
##  7         6    5767.    3475.
##  8         7    5766.    3190.
##  9         8    5189.    2620.
## 10         9    5477.    2626.
## # … with 257 more rows
```
…
